[
    { 
        "path" : "members",
        "header": "MEMBERS - Lorem ipsum dolor sit amet, consectetur adipiscing elit. Integer sem mi, euismod eu interdum sed, convallis sit amet enim. Vivamus interdum risus id pulvinar fermentum. Nulla facilisi. "
    },
    {
        "path" : "albums",
        "header": "ALBUMS - Lorem ipsum dolor sit amet, consectetur adipiscing elit. Integer sem mi, euismod eu interdum sed, convallis sit amet enim. Vivamus interdum risus id pulvinar fermentum. Nulla facilisi. "
    },
    {
        "path": "songs",
        "header": "SONGS - Lorem ipsum dolor sit amet, consectetur adipiscing elit. Integer sem mi, euismod eu interdum sed, convallis sit amet enim. Vivamus interdum risus id pulvinar fermentum. Nulla facilisi. "
    },
    {
        "path": "events",
        "header": "EVENTS - Lorem ipsum dolor sit amet, consectetur adipiscing elit. Integer sem mi, euismod eu interdum sed, convallis sit amet enim. Vivamus interdum risus id pulvinar fermentum. Nulla facilisi. "
    },
    {
        "path": "videos",
        "header": "VIDEOS - Lorem ipsum dolor sit amet, consectetur adipiscing elit. Integer sem mi, euismod eu interdum sed, convallis sit amet enim. Vivamus interdum risus id pulvinar fermentum. Nulla facilisi. "
    },
    {
        "path": "blogs",
        "header": "BLOGS - Lorem ipsum dolor sit amet, consectetur adipiscing elit. Integer sem mi, euismod eu interdum sed, convallis sit amet enim. Vivamus interdum risus id pulvinar fermentum. Nulla facilisi. "
    }
]